Point(1) = {0, 0, 0, 0.01};
Point(2) = {2.2, 0, 0, 0.02};
Point(3) = {0, 0.41, 0, 0.01};
Point(5) = {2.2, 0.41, 0, 0.02};
Point(6) = {0.15, 0.2, 0, 0.001};
Point(7) = {0.20, 0.2, 0, 0.001};
Point(8) = {0.25, 0.2, 0, 0.001};
Line(1) = {1, 2};
Line(2) = {2, 5};
Line(3) = {5, 3};
Line(4) = {3, 1};
Circle(5) = {8, 7, 6};
Circle(6) = {6, 7, 8};
Line Loop(7) = {3, 4, 1, 2};
Line Loop(8) = {5, 6};
Plane Surface(9) = {7, 8};
